…
``` r
# Choice 2: Create a new variable based on other variables in your data (only if it makes sense) - add a new variable "storey_availability" calculated by # of storeys / # of units
choice2 <- mutate (apt_buildings, storey_availability = no_of_storeys/no_of_units)
print (choice2)
```

    ## # A tibble: 3,455 × 38
    ##       id air_conditioning amenities          balconies barrier_free_accessi…¹ bike_parking exterior_fire_escape fire_alarm garbage_chutes heating_type intercom laundry_room locker_or_storage_room no_of_elevators parking_type pets_allowed
    ##    <dbl> <chr>            <chr>              <chr>     <chr>                  <chr>        <chr>                <chr>      <chr>          <chr>        <chr>    <chr>        <chr>                            <dbl> <chr>        <chr>       
    ##  1 10359 NONE             Outdoor rec facil… YES       YES                    0 indoor pa… NO                   YES        YES            HOT WATER    YES      YES          NO                                   3 Underground… YES         
    ##  2 10360 NONE             Outdoor pool       YES       NO                     0 indoor pa… NO                   YES        YES            HOT WATER    YES      YES          YES                                  3 Underground… YES         
    ##  3 10361 NONE             <NA>               YES       NO                     Not Availab… NO                   YES        NO             HOT WATER    YES      YES          YES                                  0 Underground… YES         
    ##  4 10362 NONE             <NA>               YES       YES                    Not Availab… YES                  YES        NO             HOT WATER    YES      YES          YES                                  1 Ground Leve… YES         
    ##  5 10363 NONE             <NA>               NO        NO                     12 indoor p… NO                   YES        NO             HOT WATER    YES      YES          NO                                   0 Underground… YES         
    ##  6 10364 NONE             <NA>               NO        NO                     Not Availab… <NA>                 YES        NO             HOT WATER    YES      YES          YES                                  0 Ground Leve… YES         
    ##  7 10365 NONE             <NA>               NO        YES                    Not Availab… NO                   YES        NO             HOT WATER    YES      YES          YES                                  0 Surface Par… YES         
    ##  8 10366 CENTRAL AIR      Indoor pool , Ind… YES       NO                     Not Availab… NO                   YES        YES            HOT WATER    YES      YES          YES                                  2 Underground… YES         
    ##  9 10367 NONE             <NA>               YES       YES                    0 indoor pa… NO                   YES        YES            ELECTRIC     YES      YES          NO                                   4 Underground… YES         
    ## 10 10368 NONE             Indoor recreation… YES       YES                    Not Availab… NO                   YES        NO             HOT WATER    YES      YES          NO                                   2 Surface Par… YES         
    ## # ℹ 3,445 more rows
    ## # ℹ abbreviated name: ¹​barrier_free_accessibilty_entr
    ## # ℹ 22 more variables: prop_management_company_name <chr>, property_type <chr>, rsn <dbl>, separate_gas_meters <chr>, separate_hydro_meters <chr>, separate_water_meters <chr>, site_address <chr>, sprinkler_system <chr>,
    ## #   visitor_parking <chr>, ward <chr>, window_type <chr>, year_built <dbl>, year_registered <dbl>, no_of_storeys <dbl>, emergency_power <chr>, `non-smoking_building` <chr>, no_of_units <dbl>, no_of_accessible_parking_spaces <dbl>,
    ## #   facilities_available <chr>, cooling_room <chr>, no_barrier_free_accessible_units <dbl>, storey_availability <dbl>
…
``` r
# Choice 4: Make a new tibble with a subset of your data, with variables and observations that you are interested in exploring
class(apt_buildings)
```

    ## [1] "tbl_df"     "tbl"        "data.frame"

``` r
choice4 <- select(apt_buildings, year_built, no_of_units, no_of_storeys, no_of_elevators, air_conditioning)
print(choice4)
```

    ## # A tibble: 3,455 × 5
    ##    year_built no_of_units no_of_storeys no_of_elevators air_conditioning
    ##         <dbl>       <dbl>         <dbl>           <dbl> <chr>           
    ##  1       1967         218            17               3 NONE            
    ##  2       1970         206            14               3 NONE            
    ##  3       1927          34             4               0 NONE            
    ##  4       1959          42             5               1 NONE            
    ##  5       1943          25             4               0 NONE            
    ##  6       1952          34             4               0 NONE            
    ##  7       1959          14             4               0 NONE            
    ##  8       1971         105             7               2 CENTRAL AIR     
    ##  9       1969         571            32               4 NONE            
    ## 10       1972         171             4               2 NONE            
    ## # ℹ 3,445 more rows
…
